-- Merging decision tree log ---
manifest
ADDED from C:\Users\mohamdib\Pictures\FinalProjectMRM\app\src\main\AndroidManifest.xml:2:1-44:12
	package
		ADDED from C:\Users\mohamdib\Pictures\FinalProjectMRM\app\src\main\AndroidManifest.xml:3:5-55
		INJECTED from C:\Users\mohamdib\Pictures\FinalProjectMRM\app\src\main\AndroidManifest.xml
		INJECTED from C:\Users\mohamdib\Pictures\FinalProjectMRM\app\src\main\AndroidManifest.xml
	android:versionName
		INJECTED from C:\Users\mohamdib\Pictures\FinalProjectMRM\app\src\main\AndroidManifest.xml
		INJECTED from C:\Users\mohamdib\Pictures\FinalProjectMRM\app\src\main\AndroidManifest.xml
	xmlns:android
		ADDED from C:\Users\mohamdib\Pictures\FinalProjectMRM\app\src\main\AndroidManifest.xml:2:11-69
	android:versionCode
		INJECTED from C:\Users\mohamdib\Pictures\FinalProjectMRM\app\src\main\AndroidManifest.xml
		INJECTED from C:\Users\mohamdib\Pictures\FinalProjectMRM\app\src\main\AndroidManifest.xml
uses-permission#android.permission.WRITE_EXTERNAL_STORAGE
ADDED from C:\Users\mohamdib\Pictures\FinalProjectMRM\app\src\main\AndroidManifest.xml:6:5-81
	android:name
		ADDED from C:\Users\mohamdib\Pictures\FinalProjectMRM\app\src\main\AndroidManifest.xml:6:22-78
uses-permission#android.permission.ACCESS_FINE_LOCATION
ADDED from C:\Users\mohamdib\Pictures\FinalProjectMRM\app\src\main\AndroidManifest.xml:7:5-79
	android:name
		ADDED from C:\Users\mohamdib\Pictures\FinalProjectMRM\app\src\main\AndroidManifest.xml:7:22-76
uses-permission#android.permission.ACCESS_COARSE_LOCATION
ADDED from C:\Users\mohamdib\Pictures\FinalProjectMRM\app\src\main\AndroidManifest.xml:8:5-81
	android:name
		ADDED from C:\Users\mohamdib\Pictures\FinalProjectMRM\app\src\main\AndroidManifest.xml:8:22-78
application
ADDED from C:\Users\mohamdib\Pictures\FinalProjectMRM\app\src\main\AndroidManifest.xml:10:5-42:19
MERGED from [com.android.support:appcompat-v7:23.2.1] C:\Users\mohamdib\Pictures\FinalProjectMRM\app\build\intermediates\exploded-aar\com.android.support\appcompat-v7\23.2.1\AndroidManifest.xml:25:5-20
MERGED from [com.android.support:animated-vector-drawable:23.2.1] C:\Users\mohamdib\Pictures\FinalProjectMRM\app\build\intermediates\exploded-aar\com.android.support\animated-vector-drawable\23.2.1\AndroidManifest.xml:7:5-20
MERGED from [com.android.support:support-vector-drawable:23.2.1] C:\Users\mohamdib\Pictures\FinalProjectMRM\app\build\intermediates\exploded-aar\com.android.support\support-vector-drawable\23.2.1\AndroidManifest.xml:7:5-20
MERGED from [com.android.support:support-v4:23.2.1] C:\Users\mohamdib\Pictures\FinalProjectMRM\app\build\intermediates\exploded-aar\com.android.support\support-v4\23.2.1\AndroidManifest.xml:22:5-20
	android:screenOrientation
		ADDED from C:\Users\mohamdib\Pictures\FinalProjectMRM\app\src\main\AndroidManifest.xml:14:9-45
	android:label
		ADDED from C:\Users\mohamdib\Pictures\FinalProjectMRM\app\src\main\AndroidManifest.xml:13:9-41
	android:supportsRtl
		ADDED from C:\Users\mohamdib\Pictures\FinalProjectMRM\app\src\main\AndroidManifest.xml:15:9-35
	android:hardwareAccelerated
		ADDED from C:\Users\mohamdib\Pictures\FinalProjectMRM\app\src\main\AndroidManifest.xml:16:9-44
	android:allowBackup
		ADDED from C:\Users\mohamdib\Pictures\FinalProjectMRM\app\src\main\AndroidManifest.xml:11:9-35
	android:icon
		ADDED from C:\Users\mohamdib\Pictures\FinalProjectMRM\app\src\main\AndroidManifest.xml:12:9-43
	android:largeHeap
		ADDED from C:\Users\mohamdib\Pictures\FinalProjectMRM\app\src\main\AndroidManifest.xml:17:9-33
	android:theme
		ADDED from C:\Users\mohamdib\Pictures\FinalProjectMRM\app\src\main\AndroidManifest.xml:18:9-40
service#com.autosalary2.mohamdib.finalprojectmrm.LocationWorkService
ADDED from C:\Users\mohamdib\Pictures\FinalProjectMRM\app\src\main\AndroidManifest.xml:19:9-22:40
	android:enabled
		ADDED from C:\Users\mohamdib\Pictures\FinalProjectMRM\app\src\main\AndroidManifest.xml:21:13-35
	android:exported
		ADDED from C:\Users\mohamdib\Pictures\FinalProjectMRM\app\src\main\AndroidManifest.xml:22:13-37
	android:name
		ADDED from C:\Users\mohamdib\Pictures\FinalProjectMRM\app\src\main\AndroidManifest.xml:20:13-88
activity#com.autosalary2.mohamdib.finalprojectmrm.MainActivity
ADDED from C:\Users\mohamdib\Pictures\FinalProjectMRM\app\src\main\AndroidManifest.xml:24:9-30:20
	android:name
		ADDED from C:\Users\mohamdib\Pictures\FinalProjectMRM\app\src\main\AndroidManifest.xml:24:19-87
intent-filter#android.intent.action.MAIN+android.intent.category.DEFAULT
ADDED from C:\Users\mohamdib\Pictures\FinalProjectMRM\app\src\main\AndroidManifest.xml:25:13-29:29
action#android.intent.action.MAIN
ADDED from C:\Users\mohamdib\Pictures\FinalProjectMRM\app\src\main\AndroidManifest.xml:26:17-69
	android:name
		ADDED from C:\Users\mohamdib\Pictures\FinalProjectMRM\app\src\main\AndroidManifest.xml:26:25-66
category#android.intent.category.DEFAULT
ADDED from C:\Users\mohamdib\Pictures\FinalProjectMRM\app\src\main\AndroidManifest.xml:28:17-76
	android:name
		ADDED from C:\Users\mohamdib\Pictures\FinalProjectMRM\app\src\main\AndroidManifest.xml:28:27-73
activity#com.autosalary2.mohamdib.finalprojectmrm.ShiftLists
ADDED from C:\Users\mohamdib\Pictures\FinalProjectMRM\app\src\main\AndroidManifest.xml:31:9-88
	android:name
		ADDED from C:\Users\mohamdib\Pictures\FinalProjectMRM\app\src\main\AndroidManifest.xml:31:19-85
activity#com.autosalary2.mohamdib.finalprojectmrm.SettingsActivity
ADDED from C:\Users\mohamdib\Pictures\FinalProjectMRM\app\src\main\AndroidManifest.xml:32:9-94
	android:name
		ADDED from C:\Users\mohamdib\Pictures\FinalProjectMRM\app\src\main\AndroidManifest.xml:32:19-91
activity#com.autosalary2.mohamdib.finalprojectmrm.AboutUsActivity
ADDED from C:\Users\mohamdib\Pictures\FinalProjectMRM\app\src\main\AndroidManifest.xml:33:9-93
	android:name
		ADDED from C:\Users\mohamdib\Pictures\FinalProjectMRM\app\src\main\AndroidManifest.xml:33:19-90
activity#com.autosalary2.mohamdib.finalprojectmrm.WelcomeActivity
ADDED from C:\Users\mohamdib\Pictures\FinalProjectMRM\app\src\main\AndroidManifest.xml:34:9-40:20
	android:name
		ADDED from C:\Users\mohamdib\Pictures\FinalProjectMRM\app\src\main\AndroidManifest.xml:34:19-90
intent-filter#android.intent.action.MAIN+android.intent.category.LAUNCHER
ADDED from C:\Users\mohamdib\Pictures\FinalProjectMRM\app\src\main\AndroidManifest.xml:35:13-39:29
category#android.intent.category.LAUNCHER
ADDED from C:\Users\mohamdib\Pictures\FinalProjectMRM\app\src\main\AndroidManifest.xml:38:17-77
	android:name
		ADDED from C:\Users\mohamdib\Pictures\FinalProjectMRM\app\src\main\AndroidManifest.xml:38:27-74
activity#com.autosalary2.mohamdib.finalprojectmrm.AddDayActivity
ADDED from C:\Users\mohamdib\Pictures\FinalProjectMRM\app\src\main\AndroidManifest.xml:41:9-101
	android:name
		ADDED from C:\Users\mohamdib\Pictures\FinalProjectMRM\app\src\main\AndroidManifest.xml:41:19-89
uses-sdk
INJECTED from C:\Users\mohamdib\Pictures\FinalProjectMRM\app\src\main\AndroidManifest.xml reason: use-sdk injection requested
MERGED from [com.android.support:appcompat-v7:23.2.1] C:\Users\mohamdib\Pictures\FinalProjectMRM\app\build\intermediates\exploded-aar\com.android.support\appcompat-v7\23.2.1\AndroidManifest.xml:21:5-23:78
MERGED from [com.android.support:animated-vector-drawable:23.2.1] C:\Users\mohamdib\Pictures\FinalProjectMRM\app\build\intermediates\exploded-aar\com.android.support\animated-vector-drawable\23.2.1\AndroidManifest.xml:5:5-44
MERGED from [com.android.support:support-vector-drawable:23.2.1] C:\Users\mohamdib\Pictures\FinalProjectMRM\app\build\intermediates\exploded-aar\com.android.support\support-vector-drawable\23.2.1\AndroidManifest.xml:5:5-43
MERGED from [com.android.support:support-v4:23.2.1] C:\Users\mohamdib\Pictures\FinalProjectMRM\app\build\intermediates\exploded-aar\com.android.support\support-v4\23.2.1\AndroidManifest.xml:20:5-43
	tools:overrideLibrary
		ADDED from [com.android.support:appcompat-v7:23.2.1] C:\Users\mohamdib\Pictures\FinalProjectMRM\app\build\intermediates\exploded-aar\com.android.support\appcompat-v7\23.2.1\AndroidManifest.xml:23:9-75
	android:targetSdkVersion
		INJECTED from C:\Users\mohamdib\Pictures\FinalProjectMRM\app\src\main\AndroidManifest.xml
		INJECTED from C:\Users\mohamdib\Pictures\FinalProjectMRM\app\src\main\AndroidManifest.xml
	android:minSdkVersion
		INJECTED from C:\Users\mohamdib\Pictures\FinalProjectMRM\app\src\main\AndroidManifest.xml
		INJECTED from C:\Users\mohamdib\Pictures\FinalProjectMRM\app\src\main\AndroidManifest.xml
